[
  {
    "tourId": 1,
    "type": "Excursion",
    "country": "Italy",
    "days": 6,
    "nights": 5,
    "transport": "Airplane",
    "hotel": {
      "star": 3,
      "room": 1,
      "television": true,
      "wiFi": false,
      "breakfast": true
    },
    "cost": 499
  },
  {
    "tourId": 2,
    "type": "Excursion",
    "country": "France",
    "days": 5,
    "nights": 4,
    "transport": "Airplane",
    "hotel": {
      "star": 4,
      "room": 2,
      "television": true,
      "wiFi": true,
      "breakfast": true
    },
    "cost": 899
  },
  {
    "tourId": 3,
    "type": "Relaxation",
    "country": "Dominican Republic",
    "days": 7,
    "nights": 7,
    "transport": "Airplane",
    "hotel": {
      "star": 5,
      "room": 2,
      "television": true,
      "wiFi": true,
      "breakfast": true
    },
    "cost": 1399
  }
]